{
  "defaultTheme": "dark",
  "googleAnalytics": "",
  "indexFile": "zelda quotes",
  "logo": "",
  "noindex": false,
  "readableLineLength": true,
  "showBacklinks": true,
  "showGraph": true,
  "showHoverPreview": true,
  "showNavigation": true,
  "showOutline": true,
  "showSearch": true,
  "siteName": "the triforce",
  "slidingWindowMode": false,
  "strictLineBreaks": false
}
